module quota

go 1.19

require (
	github.com/gestgo/gest/package/common/config v0.0.0-20230420142011-d667b63a57c6
	github.com/gestgo/gest/package/core v0.0.0-20230420142011-d667b63a57c6
	github.com/gestgo/gest/package/extension/echofx v0.0.0-20230420142011-d667b63a57c6
	github.com/gestgo/gest/package/extension/i18nfx v0.0.0-20230420142011-d667b63a57c6
	github.com/gestgo/gest/package/extension/logfx v0.0.0-20230420142011-d667b63a57c6
	github.com/gestgo/gest/package/technique/mongo v0.0.0-20230511012607-5b007a59cf74
	github.com/gestgo/gest/package/technique/validate v0.0.0-20230420142011-d667b63a57c6
	github.com/getlago/lago-go-client v0.32.0-beta
	github.com/go-playground/locales v0.14.1
	github.com/go-playground/universal-translator v0.18.1
	github.com/go-playground/validator/v10 v10.12.0
	github.com/labstack/echo/v4 v4.10.2
	github.com/samber/lo v1.38.1
	github.com/swaggo/files/v2 v2.0.0
	github.com/swaggo/swag v1.16.1
	go.mongodb.org/mongo-driver v1.11.6
	go.uber.org/fx v1.19.3
	go.uber.org/zap v1.24.0
)

require (
	github.com/KyleBanks/depth v1.2.1 // indirect
	github.com/PuerkitoBio/purell v1.1.1 // indirect
	github.com/PuerkitoBio/urlesc v0.0.0-20170810143723-de5bf2ad4578 // indirect
	github.com/fsnotify/fsnotify v1.6.0 // indirect
	github.com/go-openapi/jsonpointer v0.19.5 // indirect
	github.com/go-openapi/jsonreference v0.19.6 // indirect
	github.com/go-openapi/spec v0.20.4 // indirect
	github.com/go-openapi/swag v0.19.15 // indirect
	github.com/go-resty/resty/v2 v2.7.0 // indirect
	github.com/golang-jwt/jwt v3.2.2+incompatible // indirect
	github.com/golang/snappy v0.0.1 // indirect
	github.com/google/uuid v1.3.0 // indirect
	github.com/hashicorp/hcl v1.0.0 // indirect
	github.com/josharian/intern v1.0.0 // indirect
	github.com/klauspost/compress v1.13.6 // indirect
	github.com/labstack/gommon v0.4.0 // indirect
	github.com/leodido/go-urn v1.2.2 // indirect
	github.com/magiconair/properties v1.8.7 // indirect
	github.com/mailru/easyjson v0.7.7 // indirect
	github.com/mattn/go-colorable v0.1.13 // indirect
	github.com/mattn/go-isatty v0.0.17 // indirect
	github.com/mitchellh/mapstructure v1.5.0 // indirect
	github.com/montanaflynn/stats v0.0.0-20171201202039-1bf9dbcd8cbe // indirect
	github.com/pelletier/go-toml/v2 v2.0.6 // indirect
	github.com/pkg/errors v0.9.1 // indirect
	github.com/spf13/afero v1.9.3 // indirect
	github.com/spf13/cast v1.5.0 // indirect
	github.com/spf13/jwalterweatherman v1.1.0 // indirect
	github.com/spf13/pflag v1.0.5 // indirect
	github.com/spf13/viper v1.15.0 // indirect
	github.com/subosito/gotenv v1.4.2 // indirect
	github.com/valyala/bytebufferpool v1.0.0 // indirect
	github.com/valyala/fasttemplate v1.2.2 // indirect
	github.com/xdg-go/pbkdf2 v1.0.0 // indirect
	github.com/xdg-go/scram v1.1.1 // indirect
	github.com/xdg-go/stringprep v1.0.3 // indirect
	github.com/youmark/pkcs8 v0.0.0-20181117223130-1be2e3e5546d // indirect
	go.uber.org/atomic v1.9.0 // indirect
	go.uber.org/dig v1.16.1 // indirect
	go.uber.org/multierr v1.8.0 // indirect
	golang.org/x/crypto v0.7.0 // indirect
	golang.org/x/exp v0.0.0-20220303212507-bbda1eaf7a17 // indirect
	golang.org/x/net v0.8.0 // indirect
	golang.org/x/sync v0.1.0 // indirect
	golang.org/x/sys v0.6.0 // indirect
	golang.org/x/text v0.8.0 // indirect
	golang.org/x/time v0.3.0 // indirect
	golang.org/x/tools v0.7.0 // indirect
	gopkg.in/ini.v1 v1.67.0 // indirect
	gopkg.in/yaml.v2 v2.4.0 // indirect
	gopkg.in/yaml.v3 v3.0.1 // indirect
)
