module github.com/gestgo/gest/package/extension/asynqfx

go 1.19

require (
	github.com/gestgo/gest/package/core v0.0.0-20230403135753-31b553eca266
	github.com/hibiken/asynq v0.24.0
	go.uber.org/fx v1.19.2
)

require (
	github.com/cespare/xxhash/v2 v2.1.1 // indirect
	github.com/dgryski/go-rendezvous v0.0.0-20200823014737-9f7001d12a5f // indirect
	github.com/go-redis/redis/v8 v8.11.2 // indirect
	github.com/golang/protobuf v1.4.2 // indirect
	github.com/google/uuid v1.2.0 // indirect
	github.com/robfig/cron/v3 v3.0.1 // indirect
	github.com/spf13/cast v1.3.1 // indirect
	go.uber.org/atomic v1.7.0 // indirect
	go.uber.org/dig v1.16.1 // indirect
	go.uber.org/multierr v1.6.0 // indirect
	go.uber.org/zap v1.24.0 // indirect
	golang.org/x/sys v0.0.0-20210903071746-97244b99971b // indirect
	golang.org/x/time v0.0.0-20190308202827-9d24e82272b4 // indirect
	google.golang.org/protobuf v1.25.0 // indirect
)
