module github.com/gestgo/gest/package/extension/echofx

go 1.19

require (
	github.com/gestgo/gest/package/core v0.0.0-20230331135242-1bc85665f5a0
	github.com/labstack/echo/v4 v4.10.2
	github.com/swaggo/files/v2 v2.0.0
	github.com/swaggo/swag v1.16.1
	go.uber.org/fx v1.19.2
)

require (
	github.com/KyleBanks/depth v1.2.1 // indirect
	github.com/PuerkitoBio/purell v1.1.1 // indirect
	github.com/PuerkitoBio/urlesc v0.0.0-20170810143723-de5bf2ad4578 // indirect
	github.com/go-openapi/jsonpointer v0.19.5 // indirect
	github.com/go-openapi/jsonreference v0.19.6 // indirect
	github.com/go-openapi/spec v0.20.4 // indirect
	github.com/go-openapi/swag v0.19.15 // indirect
	github.com/josharian/intern v1.0.0 // indirect
	github.com/labstack/gommon v0.4.0 // indirect
	github.com/mailru/easyjson v0.7.6 // indirect
	github.com/mattn/go-colorable v0.1.13 // indirect
	github.com/mattn/go-isatty v0.0.17 // indirect
	github.com/valyala/bytebufferpool v1.0.0 // indirect
	github.com/valyala/fasttemplate v1.2.2 // indirect
	go.uber.org/atomic v1.7.0 // indirect
	go.uber.org/dig v1.16.1 // indirect
	go.uber.org/multierr v1.6.0 // indirect
	go.uber.org/zap v1.23.0 // indirect
	golang.org/x/crypto v0.6.0 // indirect
	golang.org/x/net v0.8.0 // indirect
	golang.org/x/sys v0.6.0 // indirect
	golang.org/x/text v0.8.0 // indirect
	golang.org/x/tools v0.7.0 // indirect
	gopkg.in/yaml.v2 v2.4.0 // indirect
)
